A Grammar of Omics Data Manipulation
…
---
class: middle

## Extract metadata on the fly (2)

```r
msnset %>% fData %>% as_tibble
```

```
## # A tibble: 55 x 15
##    spectrum ProteinAccession ProteinDescript… PeptideSequence  file
##  *    <int> <fct>            <fct>            <fct>           <int>
##  1        1 BSA              bovine serum al… NYQEAK              1
##  2       10 ECA1422          glucose-1-phosp… VTLVDTGEHSMTGGR     1
##  3       11 ECA4030          50S ribosomal s… SPIWR               1
##  4       12 ECA3882          chaperone prote… TAIDDALK            1
##  5       13 ECA1364          succinyl-CoA sy… SILINK              1
##  6       14 ECA0871          NADP-dependent … DFEVVNNESDPR        1
##  7       15 ECA4512          ATP synthase be… EGNDFYHEMTDSNV…     1
##  8       16 ECA4513          ATP synthase ga… VMLQAYDEGR          1
##  9       17 ECA3969          fumarate reduct… ANAVVLATGGAGR       1
## 10       18 ECA3082          malate:quinone … VATPEWQSK           1
## # ... with 45 more rows, and 10 more variables: retention.time <dbl>,
## #   precursor.mz <dbl>, precursor.intensity <dbl>, charge <int>,
## #   peaks.count <int>, tic <dbl>, ionCount <dbl>, ms.level <int>,
## #   acquisition.number <int>, collision.energy <dbl>
```
---
class: middle

## Using [biobroom](https://www.bioconductor.org/packages/release/bioc/html/biobroom.html) (sample metadata)

```r
library("biobroom")
tidy(msnset, addPheno = TRUE)
```

```
## # A tibble: 220 x 6
##    protein sample        mz reporters group  value
##    <fct>   <fct>      <dbl> <fct>     <chr>  <dbl>
##  1 X1      iTRAQ4.114  114. iTRAQ4    A      1348.
##  2 X10     iTRAQ4.114  114. iTRAQ4    A       740.
##  3 X11     iTRAQ4.114  114. iTRAQ4    A     27638.
##  4 X12     iTRAQ4.114  114. iTRAQ4    A     31893.
##  5 X13     iTRAQ4.114  114. iTRAQ4    A     26144.
##  6 X14     iTRAQ4.114  114. iTRAQ4    A      6448.
##  7 X15     iTRAQ4.114  114. iTRAQ4    A       722.
##  8 X16     iTRAQ4.114  114. iTRAQ4    A     10155.
##  9 X17     iTRAQ4.114  114. iTRAQ4    A      2800.
## 10 X18     iTRAQ4.114  114. iTRAQ4    A      4459.
## # ... with 210 more rows
```

---
class: middle

## Expression and feature data

```r
mdf <- MSnbase::ms2df(msnset)
tibble::as_tibble(mdf)
```

```
## # A tibble: 55 x 19
##    iTRAQ4.114 iTRAQ4.115 iTRAQ4.116 iTRAQ4.117 spectrum ProteinAccession
##  *      <dbl>      <dbl>      <dbl>      <dbl>    <int> <fct>           
##  1      1348.      2247.      3928.      7661.        1 BSA             
##  2       740.       799.       713.       941.       10 ECA1422         
##  3     27638.     33394.     32104.     26629.       11 ECA4030         
##  4     31893.     33635.     37675.     37228.       12 ECA3882         
##  5     26144.     29677.     29089.     27903.       13 ECA1364         
##  6      6448.      6234.      6903.      6437.       14 ECA0871         
##  7       722.      1059.       851.       945.       15 ECA4512         
##  8     10155.     10487.     11018.     11290.       16 ECA4513         
##  9      2800.      3245.      2965.      3184.       17 ECA3969         
## 10      4459.      4787.      4351.      4303.       18 ECA3082         
## # ... with 45 more rows, and 13 more variables: ProteinDescription <fct>,
## #   PeptideSequence <fct>, file <int>, retention.time <dbl>,
## #   precursor.mz <dbl>, precursor.intensity <dbl>, charge <int>,
## #   peaks.count <int>, tic <dbl>, ionCount <dbl>, ms.level <int>,
## #   acquisition.number <int>, collision.energy <dbl>
```

---
class: middle

## Gather into a long format

```r
fv <- fvarLabels(msnset)
lmdf <- tidyr::gather(mdf, sample, exprs, -fv)
tibble::as_tibble(lmdf)
```

```
## # A tibble: 220 x 17
##    spectrum ProteinAccession ProteinDescript… PeptideSequence  file
##       <int> <fct>            <fct>            <fct>           <int>
##  1        1 BSA              bovine serum al… NYQEAK              1
##  2       10 ECA1422          glucose-1-phosp… VTLVDTGEHSMTGGR     1
##  3       11 ECA4030          50S ribosomal s… SPIWR               1
##  4       12 ECA3882          chaperone prote… TAIDDALK            1
##  5       13 ECA1364          succinyl-CoA sy… SILINK              1
##  6       14 ECA0871          NADP-dependent … DFEVVNNESDPR        1
##  7       15 ECA4512          ATP synthase be… EGNDFYHEMTDSNV…     1
##  8       16 ECA4513          ATP synthase ga… VMLQAYDEGR          1
##  9       17 ECA3969          fumarate reduct… ANAVVLATGGAGR       1
## 10       18 ECA3082          malate:quinone … VATPEWQSK           1
## # ... with 210 more rows, and 12 more variables: retention.time <dbl>,
## #   precursor.mz <dbl>, precursor.intensity <dbl>, charge <int>,
## #   peaks.count <int>, tic <dbl>, ionCount <dbl>, ms.level <int>,
## #   acquisition.number <int>, collision.energy <dbl>, sample <chr>,
## #   exprs <dbl>
```
…
